%YAML 1.1
%TAG !u! tag:unity3d.com,2011:
--- !u!221 &22100000
AnimatorOverrideController:
  m_ObjectHideFlags: 0
  m_CorrespondingSourceObject: {fileID: 0}
  m_PrefabInstance: {fileID: 0}
  m_PrefabAsset: {fileID: 0}
  m_Name: Distant Cloud
  m_Controller: {fileID: 9100000, guid: 97e5f33920c3a472699196f20bc410f0, type: 2}
  m_Clips:
  - m_OriginalClip: {fileID: 7400000, guid: b9c34b21b6a0d4490b42d410f6091637, type: 2}
    m_OverrideClip: {fileID: 7400000, guid: 3fd515a3363174de9815250f09613d1e, type: 2}
